Verhalen vertellen met data
…
simulated_data

# A tibble: 151 x 2
   Division Party   
      <int> <chr>   
 1        1 Other   
 2        2 National
 3        3 Labor   
 4        4 Other   
 5        5 Labor   
 6        6 Green   
 7        7 National
 8        8 Other   
 9        9 Labor   
10       10 Other   
# ... with 141 more rows
…
