Verzekeringskosten voorspellen
…
Hierboven is een demonstratie van onze regressie op een lijn. Er is een grote cluster van waarden die ons model gewoon niet weergeeft, en we zouden meer kunnen leren over deze punten, maar in plaats daarvan gaan we verder met het toepassen van ons model op onze testgegevens, die we veel eerder in dit project hebben gedefinieerd.

insur_test_res <- predict(knn_fit, new_data = test_proc %>% select(-charges))

insur_test_res <- bind_cols(insur_test_res, insur_test %>% select(charges))
insur_test_res

# A tibble: 335 x 2
    .pred charges
    <dbl>   <dbl>
 1 18096.  16885.
 2  5367.   1726.
 3 12476.  21984.
 4  6138.   7282.
 5 14134.  28923.
 6 12343.  11091.
 7 14540.  10797.
 8  5721.   2395.
 9 43726.  36837.
10 13489.  14452.
# ... with 325 more rows
…
# A tibble: 2 x 6
  .metric .estimator     mean     n  std_err .config             
  <chr>   <chr>         <dbl> <int>    <dbl> <chr>               
1 rmse    standard   4829.       10 242.     Preprocessor1_Model1
2 rsq     standard      0.837    10   0.0217 Preprocessor1_Model1

Fascinerend! Het blijkt dat het goede, ouderwetse lineaire model k-Nearest Neighbors verslaat zowel in termen van RMSE als van R^2 over 10 kruisvalidatie-voudigingen.

insur_test_lm_res <- predict(lm_fit, new_data = test_proc %>% select(-charges))

insur_test_lm_res <- bind_cols(insur_test_lm_res, insur_test %>% select(charges))

insur_test_lm_res

# A tibble: 335 x 2
    .pred charges
    <dbl>   <dbl>
 1 23455.  16885.
 2  2911.   1726.
 3  6385.  21984.
 4  7586.   7282.
 5 13430.  28923.
 6 12883.  11091.
 7 11544.  10797.
 8  3855.   2395.
 9 36734.  36837.
10 14106.  14452.
# ... with 325 more rows
…
