Werken met Tidymodels, een suite voor machine learning
…
Vervolgens fitten we het model en kijken naar de resultaten.

 flights_fit <-
                flights_wflow %>%
                fit(data = train_data)
## Halen resultaten eruit
 flights_fit %>%
                pull_workflow_fit() %>%
                tidy()

Warning: `pull_workflow_fit()` was deprecated in workflows 0.2.3.
ℹ Please use `extract_fit_parsnip()` instead.

# A tibble: 158 × 5
   term                         estimate std.error statistic  p.value
   <chr>                           <dbl>     <dbl>     <dbl>    <dbl>
 1 (Intercept)                   5.25    2.72           1.93 5.40e- 2
 2 dep_time                     -0.00167 0.0000141   -118.   0       
 3 air_time                     -0.0438  0.000561     -78.0  0       
 4 distance                      0.00615 0.00150        4.10 4.09e- 5
 5 date_USChristmasDay           1.14    0.171          6.65 2.86e-11
 6 date_USColumbusDay            0.627   0.169          3.72 2.03e- 4
 7 date_USCPulaskisBirthday      0.702   0.133          5.29 1.25e- 7
 8 date_USDecorationMemorialDay  0.363   0.117          3.11 1.86e- 3
 9 date_USElectionDay            0.695   0.177          3.92 8.87e- 5
10 date_USGoodFriday             1.15    0.156          7.39 1.45e-13
# … with 148 more rows

Voorspellen

We gebruiken de getrainde werkflow om te voorspellen. Nu zetten we deze werkflow van de trainingsset in op de testdata.

predict(flights_fit, test_data)

# A tibble: 81,455 × 1
   .pred_class
   <fct>      
 1 on_time    
 2 on_time    
 3 on_time    
 4 on_time    
 5 on_time    
 6 on_time    
 7 on_time    
 8 on_time    
 9 on_time    
10 on_time    
# … with 81,445 more rows

Laat het voorspellen van de testdata zien en geef de waarschijnlijkheid terug.

flights_pred <-
                predict(flights_fit, test_data, type = "prob") %>%
                bind_cols(test_data %>% select(arr_delay, time_hour, flight))
        flights_pred

# A tibble: 81,455 × 5
   .pred_late .pred_on_time arr_delay time_hour           flight
        <dbl>         <dbl> <fct>     <dttm>               <int>
 1     0.0183         0.982 on_time   2013-01-01 06:00:00    461
 2     0.0426         0.957 on_time   2013-01-01 06:00:00   5708
 3     0.0413         0.959 on_time   2013-01-01 06:00:00     71
 4     0.0253         0.975 on_time   2013-01-01 06:00:00    194
 5     0.0306         0.969 on_time   2013-01-01 06:00:00   1743
 6     0.0236         0.976 on_time   2013-01-01 06:00:00   1077
 7     0.0119         0.988 on_time   2013-01-01 06:00:00    709
 8     0.137          0.863 on_time   2013-01-01 06:00:00    245
 9     0.0526         0.947 on_time   2013-01-01 06:00:00   4599
10     0.0246         0.975 on_time   2013-01-01 06:00:00   1019
# … with 81,445 more rows
…
Eerst gaan we de data binnenhalen waar we in deze handleiding mee zullen werken. Het gaat om data die iets zeggen over de kwaliteit van celbeeld segementatie. Ze zitten in dit pakket.

Bij het vaststellen van effecten van drugs (medicijn wel of niet) wordt er vaak gekeken naar de effecten op de cellen. Dat is op de beelden te zien. Dan wordt er naar de kleur of de afmeting gekeken of naar segmentatie zoals hier.

# tidymodels hebben we al actief gemaakt
# voor de cellen data ----
library(modeldata) 

## Laad de data ----
data(cells, package = "modeldata")

## Dit zijn de data
cells

# A tibble: 2,019 × 58
   case  class angle_c…¹ area_…² avg_i…³ avg_i…⁴ avg_i…⁵ avg_i…⁶ conve…⁷ conve…⁸
   <fct> <fct>     <dbl>   <int>   <dbl>   <dbl>   <dbl>   <dbl>   <dbl>   <dbl>
 1 Test  PS       143.       185    15.7    4.95    9.55    2.21    1.12   0.920
 2 Train PS       134.       819    31.9  207.     69.9   164.      1.26   0.797
 3 Train WS       107.       431    28.0  116.     63.9   107.      1.05   0.935
 4 Train PS        69.2      298    19.5  102.     28.2    31.0     1.20   0.866
 5 Test  PS         2.89     285    24.3  112.     20.5    40.6     1.11   0.957
 6 Test  WS        40.7      172   326.   654.    129.    347.      1.01   0.993
 7 Test  WS       174.       177   260.   596.    124.    273.      1.01   0.984
 8 Test  PS       180.       251    18.3    5.73   17.2     1.55    1.20   0.831
 9 Test  WS        18.9      495    16.1   89.5    13.7    51.4     1.19   0.822
10 Test  WS       153.       384    17.7   89.9    20.4    63.1     1.16   0.865
# … with 2,009 more rows, 48 more variables: diff_inten_density_ch_1 <dbl>,
#   diff_inten_density_ch_3 <dbl>, diff_inten_density_ch_4 <dbl>,
#   entropy_inten_ch_1 <dbl>, entropy_inten_ch_3 <dbl>,
#   entropy_inten_ch_4 <dbl>, eq_circ_diam_ch_1 <dbl>,
#   eq_ellipse_lwr_ch_1 <dbl>, eq_ellipse_oblate_vol_ch_1 <dbl>,
#   eq_ellipse_prolate_vol_ch_1 <dbl>, eq_sphere_area_ch_1 <dbl>,
#   eq_sphere_vol_ch_1 <dbl>, fiber_align_2_ch_3 <dbl>, …
…
Attaching package: 'vip'

The following object is masked from 'package:utils':

    vi

De data openen

# door experts gelabelled als 'well-segmented' (WS) of 'poorly segmented' (PS).
data(cells, package = "modeldata")
cells

# A tibble: 2,019 × 58
   case  class angle_c…¹ area_…² avg_i…³ avg_i…⁴ avg_i…⁵ avg_i…⁶ conve…⁷ conve…⁸
   <fct> <fct>     <dbl>   <int>   <dbl>   <dbl>   <dbl>   <dbl>   <dbl>   <dbl>
 1 Test  PS       143.       185    15.7    4.95    9.55    2.21    1.12   0.920
 2 Train PS       134.       819    31.9  207.     69.9   164.      1.26   0.797
 3 Train WS       107.       431    28.0  116.     63.9   107.      1.05   0.935
 4 Train PS        69.2      298    19.5  102.     28.2    31.0     1.20   0.866
 5 Test  PS         2.89     285    24.3  112.     20.5    40.6     1.11   0.957
 6 Test  WS        40.7      172   326.   654.    129.    347.      1.01   0.993
 7 Test  WS       174.       177   260.   596.    124.    273.      1.01   0.984
 8 Test  PS       180.       251    18.3    5.73   17.2     1.55    1.20   0.831
 9 Test  WS        18.9      495    16.1   89.5    13.7    51.4     1.19   0.822
10 Test  WS       153.       384    17.7   89.9    20.4    63.1     1.16   0.865
# … with 2,009 more rows, 48 more variables: diff_inten_density_ch_1 <dbl>,
#   diff_inten_density_ch_3 <dbl>, diff_inten_density_ch_4 <dbl>,
#   entropy_inten_ch_1 <dbl>, entropy_inten_ch_3 <dbl>,
#   entropy_inten_ch_4 <dbl>, eq_circ_diam_ch_1 <dbl>,
#   eq_ellipse_lwr_ch_1 <dbl>, eq_ellipse_oblate_vol_ch_1 <dbl>,
#   eq_ellipse_prolate_vol_ch_1 <dbl>, eq_sphere_area_ch_1 <dbl>,
#   eq_sphere_vol_ch_1 <dbl>, fiber_align_2_ch_3 <dbl>, …
…
Decision Tree Model Specification (classification)

Main Arguments:
  cost_complexity = tune()
  tree_depth = tune()

Computational engine: rpart 

## dials::grid_regular() 
tree_grid <- grid_regular(cost_complexity(),
                          tree_depth(),
                          levels = 5)
tree_grid

# A tibble: 25 × 2
   cost_complexity tree_depth
             <dbl>      <int>
 1    0.0000000001          1
 2    0.0000000178          1
 3    0.00000316            1
 4    0.000562              1
 5    0.1                   1
 6    0.0000000001          4
 7    0.0000000178          4
 8    0.00000316            4
 9    0.000562              4
10    0.1                   4
# … with 15 more rows
…
De functie collect_metrics() geeft ons een nette tabel met alle resultaten. We hadden 25 kandidaat-modellen en twee metrieken, accuracy en roc_auc, en we krijgen een rij voor elke .metriek en model.

tree_res %>% 
  collect_metrics()

# A tibble: 50 × 8
   cost_complexity tree_depth .metric  .estimator  mean     n std_err .config   
             <dbl>      <int> <chr>    <chr>      <dbl> <int>   <dbl> <chr>     
 1    0.0000000001          1 accuracy binary     0.732    10  0.0148 Preproces…
 2    0.0000000001          1 roc_auc  binary     0.777    10  0.0107 Preproces…
 3    0.0000000178          1 accuracy binary     0.732    10  0.0148 Preproces…
 4    0.0000000178          1 roc_auc  binary     0.777    10  0.0107 Preproces…
 5    0.00000316            1 accuracy binary     0.732    10  0.0148 Preproces…
 6    0.00000316            1 roc_auc  binary     0.777    10  0.0107 Preproces…
 7    0.000562              1 accuracy binary     0.732    10  0.0148 Preproces…
 8    0.000562              1 roc_auc  binary     0.777    10  0.0107 Preproces…
 9    0.1                   1 accuracy binary     0.732    10  0.0148 Preproces…
10    0.1                   1 roc_auc  binary     0.777    10  0.0107 Preproces…
# … with 40 more rows
…
