Machine Learning met Tidymodels
…
Later zullen we 5-voudige cross-validatie gebruiken om het model te evalueren en de modelparameters aan te passen. We zetten de vijfvoud van de trainingsdata op met de vfold_cv() functie. We zullen dit later in meer detail uitleggen.

Data voorspel: recipe() en step_xxx()

We gebruiken de recipe()-functie om de uitkomstvariabele en de predictoren te definiëren.

Een verscheidenheid van step_xxx() functies kan worden gebruikt om data te bewerken/transformeren. Vind ze allemaal hier. Ik heb er een paar gebruikt, met korte beschrijvingen in de code. Ik heb ook een aantal selectiefuncties gebruikt, zoals all_predictors() en all_nominal() om de juiste variabelen te selecteren.

We gebruiken ook update_roles() om de rollen van sommige variabelen te veranderen. Voor ons zijn dit variabelen die we misschien willen meenemen voor evaluatiedoeleinden, maar die niet gebruikt zullen worden bij het bouwen van het model. Ik heb gekozen voor de rol evaluative, maar je kunt die rol elke naam geven die je maar wilt, bijvoorbeeld id, extra, junk (misschien een slecht idee?).

Pas het toe op de trainings-dataset, gewoon om te zien wat er gebeurt. Let op de namen van de variabelen.

# A tibble: 16,210 x 36
   id        date       bedrooms bathrooms sqft_living sqft_lot floors
   <fct>     <date>        <int>     <dbl>       <dbl>    <dbl>  <dbl>
 1 71293005… 2014-10-13        3      1           3.07     3.75      1
 2 64141001… 2014-12-09        3      2.25        3.41     3.86      2
 3 56315004… 2015-02-25        2      1           2.89     4         1
 4 24872008… 2014-12-09        4      3           3.29     3.70      1
 5 19544005… 2015-02-18        3      2           3.23     3.91      1
 6 72375503… 2014-05-12        4      4.5         3.73     5.01      1
 7 13214000… 2014-06-27        3      2.25        3.23     3.83      2
 8 20080002… 2015-01-15        3      1.5         3.03     3.99      1
 9 24146001… 2015-04-15        3      1           3.25     3.87      1
10 37935001… 2015-03-12        3      2.5         3.28     3.82      2
# … with 16,200 more rows, and 29 more variables: waterfront <dbl>,
#   view <dbl>, sqft_above <dbl>, zipcode <fct>, lat <dbl>,
#   long <dbl>, price <dbl>, basement <dbl>, renovated <dbl>,
#   age_at_sale <dbl>, condition_X2 <dbl>, condition_X3 <dbl>,
#   condition_X4 <dbl>, condition_X5 <dbl>, grade_X7 <dbl>,
#   grade_X8 <dbl>, grade_X9 <dbl>, grade_high <dbl>,
#   date_month_Feb <dbl>, date_month_Mar <dbl>, date_month_Apr <dbl>,
#   date_month_May <dbl>, date_month_Jun <dbl>, date_month_Jul <dbl>,
#   date_month_Aug <dbl>, date_month_Sep <dbl>, date_month_Oct <dbl>,
…
── Model ─────────────────────────────────────────────────────────────
Linear Regression Model Specification (regression)

Computational engine: lm 

Modelleren en evalueren

Nu zijn we eindelijk klaar om het model te draaien! Na al dat werk, lijkt dit deel eenvoudig. We gebruiken eerst de fit() functie om het model te fitten, door te vertellen op welke dataset we het model willen draaien. Daarna gebruiken we enkele andere functies om de resultaten mooi weer te geven.

# A tibble: 31 x 5
   term        estimate std.error statistic p.value
   <chr>          <dbl>     <dbl>     <dbl>   <dbl>
 1 (Intercept)    4.01      0.048     83.4        0
 2 bedrooms      -0.018     0.002    -11.2        0
 3 bathrooms      0.036     0.003     14.3        0
 4 sqft_living    0.294     0.025     11.7        0
 5 sqft_lot      -0.038     0.003    -11.0        0
 6 floors         0.021     0.003      6.87       0
 7 waterfront     0.194     0.013     15.0        0
 8 view          -0.061     0.004    -15.6        0
 9 sqft_above     0.149     0.025      5.99       0
10 basement      -0.042     0.005     -9.14       0
# … with 21 more rows
…
Voorspellen en evalueren van testgegevens

In dit eenvoudige scenario zijn we wellicht geïnteresseerd in hoe het model presteert op de testgegevens die werden weggelaten. De onderstaande code past het model toe op de trainingsgegevens en past het toe op de testgegevens. Er zijn andere manieren waarop we dit hadden kunnen doen, maar de manier waarop we het hier doen zal nuttig zijn wanneer we complexere modellen gaan gebruiken waarbij we de modelparameters moeten afstellen.

Nadat het model is aangepast en toegepast, verzamelen we de prestatiecijfers en geven we ze weer en tonen we de voorspellingen van de testgegevens.

# A tibble: 2 x 4
  .metric .estimator .estimate .config             
  <chr>   <chr>          <dbl> <chr>               
1 rmse    standard       0.135 Preprocessor1_Model1
2 rsq     standard       0.655 Preprocessor1_Model1

# A tibble: 5,403 x 5
   id               .pred  .row price .config             
   <chr>            <dbl> <int> <dbl> <chr>               
 1 train/test split  5.58    12  5.67 Preprocessor1_Model1
 2 train/test split  5.53    17  5.60 Preprocessor1_Model1
 3 train/test split  5.90    27  5.97 Preprocessor1_Model1
 4 train/test split  5.58    29  5.64 Preprocessor1_Model1
 5 train/test split  5.67    31  5.76 Preprocessor1_Model1
 6 train/test split  5.88    38  5.81 Preprocessor1_Model1
 7 train/test split  5.69    40  5.78 Preprocessor1_Model1
 8 train/test split  5.79    41  5.80 Preprocessor1_Model1
 9 train/test split  5.77    42  5.89 Preprocessor1_Model1
10 train/test split  5.66    44  5.84 Preprocessor1_Model1
# … with 5,393 more rows
…
# Tuning results
# 5-fold cross-validation 
# A tibble: 5 x 4
  splits                id    .metrics          .notes          
  <list>                <chr> <list>            <list>          
1 <rsplit [12968/3242]> Fold1 <tibble [40 × 5]> <tibble [2 × 1]>
2 <rsplit [12968/3242]> Fold2 <tibble [40 × 5]> <tibble [2 × 1]>
3 <rsplit [12968/3242]> Fold3 <tibble [40 × 5]> <tibble [2 × 1]>
4 <rsplit [12968/3242]> Fold4 <tibble [40 × 5]> <tibble [2 × 1]>
5 <rsplit [12968/3242]> Fold5 <tibble [40 × 5]> <tibble [2 × 1]>

Bekijk de resultaten van de cross-validatie.

# A tibble: 100 x 6
   id     penalty .metric .estimator .estimate .config              
   <chr>    <dbl> <chr>   <chr>          <dbl> <chr>                
 1 Fold1 1.00e-10 rmse    standard       0.135 Preprocessor1_Model01
 2 Fold1 3.36e-10 rmse    standard       0.135 Preprocessor1_Model02
 3 Fold1 1.13e- 9 rmse    standard       0.135 Preprocessor1_Model03
 4 Fold1 3.79e- 9 rmse    standard       0.135 Preprocessor1_Model04
 5 Fold1 1.27e- 8 rmse    standard       0.135 Preprocessor1_Model05
 6 Fold1 4.28e- 8 rmse    standard       0.135 Preprocessor1_Model06
 7 Fold1 1.44e- 7 rmse    standard       0.135 Preprocessor1_Model07
 8 Fold1 4.83e- 7 rmse    standard       0.135 Preprocessor1_Model08
 9 Fold1 1.62e- 6 rmse    standard       0.135 Preprocessor1_Model09
10 Fold1 5.46e- 6 rmse    standard       0.135 Preprocessor1_Model10
# … with 90 more rows
…
...
and 32 more lines.

# A tibble: 31 x 3
   term        estimate  penalty
   <chr>          <dbl>    <dbl>
 1 (Intercept)   4.12   0.000207
 2 bedrooms     -0.0174 0.000207
 3 bathrooms     0.0355 0.000207
 4 sqft_living   0.307  0.000207
 5 sqft_lot     -0.0376 0.000207
 6 floors        0.0210 0.000207
 7 waterfront    0.191  0.000207
 8 view         -0.0615 0.000207
 9 sqft_above    0.139  0.000207
10 basement     -0.0405 0.000207
# … with 21 more rows
…
