Tidymodels opnieuw
…
Operations:

Centering and scaling for all_numeric()
K-nearest neighbor imputation for all_predictors()

Als je de voorbewerkte dataset zelf wilt extraheren, kunt je eerst prep() het recept voor een specifieke dataset en juice() het voorbewerkte recept om de voorbewerkte gegevens te extraheren. Het blijkt dat het extraheren van de voorbewerkte data eigenlijk niet nodig is voor de pipeline, omdat dit onder de motorkap gebeurt als het model geschikt is. Soms is het toch nuttig.

diabetes_train_preprocessed <- diabetes_recipe %>%
  # apply the recipe to the training data
  prep(diabetes_train) %>%
  # extract the pre-processed training dataset
  juice()
diabetes_train_preprocessed

# A tibble: 576 x 9
   pregnant glucose pressure triceps insulin     mass pedigree     age diabetes
      <dbl>   <dbl>    <dbl>   <dbl>   <dbl>    <dbl>    <dbl>   <dbl> <fct>   
 1   1.23   -0.390    0.262   0.892   -0.317 -0.656      0.502 -0.201  pos     
 2   0.0447  1.09    -0.0616 -0.0348  -0.219 -0.168     -0.400  0.301  neg     
 3   1.82    1.91    -0.224   0.595    0.146  0.379     -0.813  0.301  neg     
 4  -1.14   -0.0948  -0.710  -0.591   -0.522 -0.311      3.76  -1.04   neg     
 5  -0.548   0.233    0.424   0.706    0.239  1.56       2.25  -0.201  pos     
 6   0.637  -0.0620  -1.84   -0.683    0.190 -0.771      2.53  -0.0335 pos     
 7  -0.844  -1.64    -2.01   -1.05    -0.629 -1.73      -0.445 -0.953  neg     
 8  -0.548  -0.423   -1.68   -0.313   -0.735  0.00505   -0.460 -0.953  neg     
 9  -1.14    0.463   -0.386   1.17     0.796  1.41      -0.320 -0.786  pos     
10   1.53    1.41     0.424   0.150    0.877  0.0482    -0.968  0.969  pos     
# ... with 566 more rows
…
# A tibble: 2 x 4
  .metric  .estimator .estimate .config             
  <chr>    <chr>          <dbl> <chr>               
1 accuracy binary         0.781 Preprocessor1_Model1
2 roc_auc  binary         0.847 Preprocessor1_Model1

Overall is de performance heel goed, met een accuracy van 0.74 en een AUC van 0.82. Maar deze waarden zijn vaak lager dan in de trainingsset.

Je kunt de test set voorspellingen zelf gebruiken met de collect_predictions() functie. Let op dat er 192 rijen in het voorspellingsobject zitten dat overeenkomt met de test set observaties (juist om jou te laten zien dat deze gebaseerd zijn op de testset meer dan op de trainingsset).

# genereer voorspellingen vanuit de test set
test_predictions <- rf_fit %>% collect_predictions()
test_predictions

# A tibble: 192 x 7
   id               .pred_neg .pred_pos  .row .pred_class diabetes .config      
   <chr>                <dbl>     <dbl> <int> <fct>       <fct>    <chr>        
 1 train/test split     0.347    0.653      3 pos         pos      Preprocessor~
 2 train/test split     0.210    0.790      9 pos         pos      Preprocessor~
 3 train/test split     0.783    0.217     11 neg         neg      Preprocessor~
 4 train/test split     0.508    0.492     13 neg         neg      Preprocessor~
 5 train/test split     0.624    0.376     18 neg         pos      Preprocessor~
 6 train/test split     0.364    0.636     26 pos         pos      Preprocessor~
 7 train/test split     0.218    0.782     32 pos         pos      Preprocessor~
 8 train/test split     0.673    0.327     50 neg         neg      Preprocessor~
 9 train/test split     0.976    0.0240    53 neg         neg      Preprocessor~
10 train/test split     0.166    0.834     55 pos         neg      Preprocessor~
# ... with 182 more rows
…
De voorspellingen kun je ook als volgt laten zien:

test_predictions <- rf_fit %>% pull(.predictions)
test_predictions

[[1]]
# A tibble: 192 x 6
   .pred_neg .pred_pos  .row .pred_class diabetes .config             
       <dbl>     <dbl> <int> <fct>       <fct>    <chr>               
 1     0.347    0.653      3 pos         pos      Preprocessor1_Model1
 2     0.210    0.790      9 pos         pos      Preprocessor1_Model1
 3     0.783    0.217     11 neg         neg      Preprocessor1_Model1
 4     0.508    0.492     13 neg         neg      Preprocessor1_Model1
 5     0.624    0.376     18 neg         pos      Preprocessor1_Model1
 6     0.364    0.636     26 pos         pos      Preprocessor1_Model1
 7     0.218    0.782     32 pos         pos      Preprocessor1_Model1
 8     0.673    0.327     50 neg         neg      Preprocessor1_Model1
 9     0.976    0.0240    53 neg         neg      Preprocessor1_Model1
10     0.166    0.834     55 pos         neg      Preprocessor1_Model1
# ... with 182 more rows
…
