Een eenvoudige introductie op `tidymodels`
…
In R zijn er meerdere pakketten die op hetzelfde type model passen. Het is gebruikelijk dat elk pakket een unieke interface biedt. Met andere woorden, zaken als een argument voor hetzelfde modelattribuut wordt voor elk pakket anders gedefinieerd. Bijvoorbeeld, de ranger en randomForest-pakketten passen bij Random Forest-modellen. In de ranger() functie gebruiken we num.trees om het aantal bomen te definiëren. In randomForest wordt dat argument dan weer ntree genoemd. Het is niet gemakkelijk om te wisselen tussen pakketten om hetzelfde model te draaien.

In plaats van het modelleerpakket te vervangen, vervangt tidymodels de interface. Beter gezegd, tidymodels biedt een enkele set functies en argumenten om een model te definiëren. Een specifiek pakket wordt dan aangepast in het model en algemeen gemaakt.

In het onderstaande voorbeeld wordt de rand_forest() functie gebruikt om een Random Forest model te initialiseren. Om het aantal bomen te definiëren wordt het treesargument gebruikt. Om de ranger versie van Random Forest te gebruiken, wordt de set_engine() functie gebruikt. Tenslotte wordt de fit() functie gebruikt om het model uit te voeren. De verwachte argumenten zijn de formule en de gegevens. Merk op dat het model boven op de gesausde getrainde gegevens draait.

Als we nu hetzelfde model niet met ranger maar met randomForest willen draaien, hoeven we alleen maar de waarde in set_engine() te veranderen in randomForest.

Het is ook het vermelden waard dat het model niet in een enkele, grote functie met veel argumenten is gedefinieerd. De definitie van het model is gescheiden in kleinere functies zoals fit() en set_engine(). zo krijgen we een flexibelere - en gemakkelijker te leren - interface.

Voorspellingen

In plaats van een vector geeft de predictfunctie tibble terug. Standaard wordt de voorspellingsvariabele .pred_class genoemd. Merk op dat in het voorbeeld de ’kook’testgegevens worden gebruikt.

# A tibble: 60 x 1
   .pred_class
   <fct>      
 1 setosa     
 2 setosa     
 3 setosa     
 4 setosa     
 5 setosa     
 6 setosa     
 7 setosa     
 8 setosa     
 9 setosa     
10 setosa     
# … with 50 more rows
…
