- Classificeren van Palmer penguins
…
Warning: package 'dplyr' was built under R version 4.1.3

Warning: package 'stringr' was built under R version 4.1.3

-- Conflicts ------------------------------------------ tidyverse_conflicts() --
x dplyr::filter() masks stats::filter()
x dplyr::lag()    masks stats::lag()

library(palmerpenguins)

Warning: package 'palmerpenguins' was built under R version 4.1.3

penguins

# A tibble: 344 x 8
   species island    bill_length_mm bill_depth_mm flipper_~1 body_~2 sex    year
   <fct>   <fct>              <dbl>         <dbl>      <int>   <int> <fct> <int>
 1 Adelie  Torgersen           39.1          18.7        181    3750 male   2007
 2 Adelie  Torgersen           39.5          17.4        186    3800 fema~  2007
 3 Adelie  Torgersen           40.3          18          195    3250 fema~  2007
 4 Adelie  Torgersen           NA            NA           NA      NA <NA>   2007
 5 Adelie  Torgersen           36.7          19.3        193    3450 fema~  2007
 6 Adelie  Torgersen           39.3          20.6        190    3650 male   2007
 7 Adelie  Torgersen           38.9          17.8        181    3625 fema~  2007
 8 Adelie  Torgersen           39.2          19.6        195    4675 male   2007
 9 Adelie  Torgersen           34.1          18.1        193    3475 <NA>   2007
10 Adelie  Torgersen           42            20.2        190    4250 <NA>   2007
# ... with 334 more rows, and abbreviated variable names 1: flipper_length_mm,
#   2: body_mass_g
…
set.seed(123)
penguin_split <- initial_split(penguins_df, strata = sex)
penguin_train <- training(penguin_split)
penguin_test <- testing(penguin_split)

Omdat het een relatieve kleine dataset betreft (zeker de testset), maken we vervolgens hier gebruik van bootstrap-resamples van de trainingsgegevens, om onze modellen te evalueren.

set.seed(123)
penguin_boot <- bootstraps(penguin_train)
penguin_boot

# Bootstrap sampling 
# A tibble: 25 x 2
   splits           id         
   <list>           <chr>      
 1 <split [249/93]> Bootstrap01
 2 <split [249/91]> Bootstrap02
 3 <split [249/90]> Bootstrap03
 4 <split [249/91]> Bootstrap04
 5 <split [249/85]> Bootstrap05
 6 <split [249/87]> Bootstrap06
 7 <split [249/94]> Bootstrap07
 8 <split [249/88]> Bootstrap08
 9 <split [249/95]> Bootstrap09
10 <split [249/89]> Bootstrap10
# ... with 15 more rows
…
! Bootstrap05: preprocessor 1/1, model 1/1: glm.fit: fitted probabilities numerically 0...

! Bootstrap08: preprocessor 1/1, model 1/1: glm.fit: fitted probabilities numerically 0...

! Bootstrap23: preprocessor 1/1, model 1/1: glm.fit: fitted probabilities numerically 0...

glm_rs

# Resampling results
# Bootstrap sampling 
# A tibble: 25 x 5
   splits           id          .metrics         .notes           .predictions
   <list>           <chr>       <list>           <list>           <list>      
 1 <split [249/93]> Bootstrap01 <tibble [2 x 4]> <tibble [0 x 3]> <tibble>    
 2 <split [249/91]> Bootstrap02 <tibble [2 x 4]> <tibble [0 x 3]> <tibble>    
 3 <split [249/90]> Bootstrap03 <tibble [2 x 4]> <tibble [0 x 3]> <tibble>    
 4 <split [249/91]> Bootstrap04 <tibble [2 x 4]> <tibble [0 x 3]> <tibble>    
 5 <split [249/85]> Bootstrap05 <tibble [2 x 4]> <tibble [1 x 3]> <tibble>    
 6 <split [249/87]> Bootstrap06 <tibble [2 x 4]> <tibble [0 x 3]> <tibble>    
 7 <split [249/94]> Bootstrap07 <tibble [2 x 4]> <tibble [0 x 3]> <tibble>    
 8 <split [249/88]> Bootstrap08 <tibble [2 x 4]> <tibble [1 x 3]> <tibble>    
 9 <split [249/95]> Bootstrap09 <tibble [2 x 4]> <tibble [0 x 3]> <tibble>    
10 <split [249/89]> Bootstrap10 <tibble [2 x 4]> <tibble [0 x 3]> <tibble>    
# ... with 15 more rows
…
rf_rs <- penguin_wf %>%
  add_model(rf_spec) %>%
  fit_resamples(
    resamples = penguin_boot,
    control = control_resamples(save_pred = TRUE)
  )

Warning: package 'ranger' was built under R version 4.1.3

rf_rs

# Resampling results
# Bootstrap sampling 
# A tibble: 25 x 5
   splits           id          .metrics         .notes           .predictions
   <list>           <chr>       <list>           <list>           <list>      
 1 <split [249/93]> Bootstrap01 <tibble [2 x 4]> <tibble [0 x 3]> <tibble>    
 2 <split [249/91]> Bootstrap02 <tibble [2 x 4]> <tibble [0 x 3]> <tibble>    
 3 <split [249/90]> Bootstrap03 <tibble [2 x 4]> <tibble [0 x 3]> <tibble>    
 4 <split [249/91]> Bootstrap04 <tibble [2 x 4]> <tibble [0 x 3]> <tibble>    
 5 <split [249/85]> Bootstrap05 <tibble [2 x 4]> <tibble [0 x 3]> <tibble>    
 6 <split [249/87]> Bootstrap06 <tibble [2 x 4]> <tibble [0 x 3]> <tibble>    
 7 <split [249/94]> Bootstrap07 <tibble [2 x 4]> <tibble [0 x 3]> <tibble>    
 8 <split [249/88]> Bootstrap08 <tibble [2 x 4]> <tibble [0 x 3]> <tibble>    
 9 <split [249/95]> Bootstrap09 <tibble [2 x 4]> <tibble [0 x 3]> <tibble>    
10 <split [249/89]> Bootstrap10 <tibble [2 x 4]> <tibble [0 x 3]> <tibble>    
# ... with 15 more rows
…
